{
    "Name": "StreamETL",
    //"LogUri": "http://localhost/logs/signalr/hubs",
    //"RabbitMq": "amqp://guest:guest@localhost/%2f",
    "LogUri": "http://logwatcher.azurewebsites.net/signalr/hubs",
    "RabbitMq": "amqp://guest:guest@terianil.cloudapp.net/",
    //"RabbitMq": "amqp://guest:guest@terianil.cloudapp.net/%2f",
    "MongoDb": "mongodb://localhost",
    //"MongoDb": "mongodb://terianil.cloudapp.net",
    "Plugins": { },
    "DeployTarget": "emulator"
}
