{
    "dayLength": "0:20:00",
    "tanks": [
        {
            "capacity": 1000,
            "initialFuel": 800,
            "temperatureBase": 15,
            "temperatureAmplitude": 0,
            "nozzles": [
                { "factor": 1.1 },
                { "factor": 0.9 }
            ]
        },
        {
            "capacity": 1500,
            "initialFuel": 500,
            "temperatureBase": 27,
            "temperatureAmplitude": 0.1,
            "nozzles": [
                { "factor": 0.8 },
                { "factor": 2.4 }
            ]
        }
    ]
}
